 {
    int weight; int group; int charge; int distance;
    distance = 2300;
    weight =  4000;
    if (60)  group = 5;
   else {
          int test;
          test = 2000;
          group = 1500 / 15;
         charge = 40 + 3 * 2300 / 1000;
         test = 1;
       }
 }
